  80-1 5.9887 0.0798 6.0220 0.3277 6.0220 1.5406
  80-2 5.8538 0.0693 5.9245 0.2398 5.9245 1.1705
  80-3 5.9886 0.1371 6.1313 0.3435 6.1313 1.7808
  80-4 6.0236 0.1077 6.1313 0.3076 6.1313 2.4376
  80-5 5.9622 0.1081 6.0461 0.2331 6.0461 2.1152
  80-6 5.9285 0.0969 5.9694 0.3336 5.9694 1.3551
 CTL-1 6.2817 0.0711 6.2962 0.2714 6.2962 1.7708
 CTL-2 6.0830 0.0830 6.1903 0.2468 6.1903 1.2961
 CTL-3 6.0377 0.0875 6.0243 0.3463 6.0243 1.4415
 CTL-4 6.0411 0.0775 6.0823 0.5267 6.0823 0.7395
 CTL-5 5.9414 0.0944 5.8642 0.6582 5.8642 0.5700
 CTL-6 6.0083 0.0674 6.0447 0.3741 6.0447 0.6446
